Individual1
…
## Warning: package 'dplyr' was built under R version 3.5.2

## Warning: package 'stringr' was built under R version 3.5.2

## Warning: package 'forcats' was built under R version 3.5.2

##  Conflicts  tidyverse_conflicts() 
##  dplyr::filter() masks stats::filter()
##  dplyr::lag()    masks stats::lag()

defGather <- gather(defClean,Statistic,Value,-c(1,2))
defGather

## # A tibble: 4,014 x 4
##    Name           Opponent_Opponent Statistic    Value
##    <chr>          <chr>             <chr>        <dbl>
##  1 Eisworth, Greg Iowa              Tackles_Solo     3
##  2 Eisworth, Greg Oklahoma          Tackles_Solo     6
##  3 Eisworth, Greg Akron             Tackles_Solo     7
##  4 Eisworth, Greg TCU               Tackles_Solo     6
##  5 Eisworth, Greg Oklahoma State    Tackles_Solo     3
##  6 Eisworth, Greg West Virginia     Tackles_Solo     5
##  7 Eisworth, Greg Texas Tech        Tackles_Solo     3
##  8 Eisworth, Greg Kansas            Tackles_Solo     7
##  9 Eisworth, Greg Baylor            Tackles_Solo     2
## 10 Eisworth, Greg Texas             Tackles_Solo     9
## #  with 4,004 more rows
…
